datasets
…
Create GitHub repo which can be found here: https://github.com/jrmorse/final_project_datasets

Load data into my .rmd

scrape data from a website into my RMD. Here I had to spend a lot time ensuring that the format was correct. This meant getting rid of the costs for diseases that I wasnt interested in, converting characters to integers, and segmenting between direct and indirect medical costs.

I made a function to run through a folder in my repo and to automatically, pull, clean, and combine data referring to PrEP usage in the U.S.

I made a quick bar graph to show the increase of usage between men and women between 2012-2018.

Then I read in, cleaned, and reformatted all CDC data for HIV and other relevant STIs.

Please see below for the tables I have created

## # A tibble: 28 x 3
##    parameter                                    sex   cost_2020
##    <chr>                                        <chr>     <dbl>
##  1 Average cost per case of chlamydia           F         413. 
##  2 Average cost per case of chlamydia           M          34.1
##  3 Average cost per case of gonorrhea           F         449. 
##  4 Average cost per case of gonorrhea           M          89.1
##  5 Average cost per case of syphilis            F         749. 
##  6 Average cost per case of syphilis            M         749. 
##  7 Average cost per case of HIV                 F      259997. 
##  8 Average cost per case of HIV                 M      259997. 
##  9 Average cost per case of congenital syphilis F        8827. 
## 10 Average cost per case of congenital syphilis M        8827. 
## #  with 18 more rows
…
## [1] "AIDSVu_State_PrEP_2013.xlsx"
## [1] "AIDSVu_State_PrEP_2014.xlsx"
## [1] "AIDSVu_State_PrEP_2015.xlsx"
## [1] "AIDSVu_State_PrEP_2016.xlsx"
## [1] "AIDSVu_State_PrEP_2017.xlsx"
## [1] "AIDSVu_State_PrEP_2018.xlsx"

## # A tibble: 312 x 28
##    geo_id state_abbreviat state  year state_pr_ep_use state_pr_ep_rat
##     <dbl> <chr>            <chr> <dbl>            <dbl>            <dbl>
##  1      1 AL               Alab  2013              111                3
##  2      2 AK               Alas  2013               12                2
##  3      4 AZ               Ariz  2013              209                4
##  4      5 AR               Arka  2013               39                2
##  5      6 CA               Cali  2013             1714                5
##  6      8 CO               Colo  2013              179                4
##  7      9 CT               Conn  2013              203                7
##  8     10 DE               Dela  2013               45                6
##  9     11 DC               Wash  2013              112               20
## 10     12 FL               Flor  2013              951                6
## #  with 302 more rows, and 22 more variables:
## #   state_pr_ep_rate_stability <chr>, male_pr_ep_users <dbl>,
## #   male_pr_ep_rate <dbl>, male_pr_ep_rate_stability <chr>,
## #   female_pr_ep_users <dbl>, female_pr_ep_rate <dbl>,
## #   female_pr_ep_rate_stability <chr>, age_le_24_pr_ep_users <dbl>,
## #   age_le_24_pr_ep_rate <dbl>, age_le_24_pr_ep_rate_stability <chr>,
## #   age_25_34_pr_ep_users <dbl>, age_25_34_pr_ep_rate <dbl>,
## #   age_25_34_pr_ep_rate_stability <chr>, age_35_44_pr_ep_users <dbl>,
## #   age_35_44_pr_ep_rate <dbl>, age_35_44_pr_ep_rate_stability <chr>,
## #   age_45_54_pr_ep_users <dbl>, age_45_54_pr_ep_rate <dbl>,
## #   age_45_54_pr_ep_rate_stability <chr>, age_55_pr_ep_users <dbl>,
## #   age_55_pr_ep_rate <dbl>, age_55_pr_ep_rate_stability <chr>

##                      race proportion
## 1                   White 0.68139628
## 2 Black/ African American 0.11557505
## 3        Hispanic/ Latino 0.13413877
## 4                   Asian 0.04503014
## 5             Unspecified 0.02385977

## # A tibble: 312 x 5
##     year pr_ep_users state_abbreviation state            sex  
##    <dbl>       <dbl> <chr>              <chr>            <chr>
##  1  2013          59 AL                 Alabama          Male 
##  2  2013           8 AK                 Alaska           Male 
##  3  2013         119 AZ                 Arizona          Male 
##  4  2013          22 AR                 Arkansas         Male 
##  5  2013        1319 CA                 California       Male 
##  6  2013         117 CO                 Colorado         Male 
##  7  2013          90 CT                 Connecticut      Male 
##  8  2013          19 DE                 Delaware         Male 
##  9  2013          88 DC                 Washington, D.C. Male 
## 10  2013         528 FL                 Florida          Male 
## #  with 302 more rows

## # A tibble: 312 x 5
##     year pr_ep_users state_abbreviation state            sex   
##    <dbl>       <dbl> <chr>              <chr>            <chr> 
##  1  2013          52 AL                 Alabama          Female
##  2  2013           4 AK                 Alaska           Female
##  3  2013          90 AZ                 Arizona          Female
##  4  2013          17 AR                 Arkansas         Female
##  5  2013         395 CA                 California       Female
##  6  2013          62 CO                 Colorado         Female
##  7  2013         113 CT                 Connecticut      Female
##  8  2013          26 DE                 Delaware         Female
##  9  2013          24 DC                 Washington, D.C. Female
## 10  2013         423 FL                 Florida          Female
## #  with 302 more rows
…
## # A tibble: 1,120 x 7
##    indicator  year race_ethnicity          sex   age_group cases rate_per_100000
##    <chr>     <dbl> <chr>                   <chr> <chr>     <chr> <chr>          
##  1 Chlamydia  2013 American Indian/Alaska Fema 0-14      207   79.8           
##  2 Chlamydia  2013 American Indian/Alaska Fema 15-19     3878  4282.9         
##  3 Chlamydia  2013 American Indian/Alaska Fema 20-24     4964  5061.9         
##  4 Chlamydia  2013 American Indian/Alaska Fema 25-29     2528  2971.7         
##  5 Chlamydia  2013 American Indian/Alaska Fema 30-34     1145  1439.6         
##  6 Chlamydia  2013 American Indian/Alaska Fema 35-39     483   668.8          
##  7 Chlamydia  2013 American Indian/Alaska Fema 40-44     236   315            
##  8 Chlamydia  2013 American Indian/Alaska Male  0-14      18    6.7            
##  9 Chlamydia  2013 American Indian/Alaska Male  15-19     865   918.8          
## 10 Chlamydia  2013 American Indian/Alaska Male  20-24     1386  1346.2         
## #  with 1,110 more rows
…
## # A tibble: 80 x 4
## # Groups:   transmission_category, year [50]
##    transmission_category  year sex    total_cases
##    <chr>                 <dbl> <chr>        <dbl>
##  1 Heterosexual contact   2008 Female        9458
##  2 Heterosexual contact   2008 Male          4735
##  3 Heterosexual contact   2009 Female        8520
##  4 Heterosexual contact   2009 Male          4408
##  5 Heterosexual contact   2010 Female        8002
##  6 Heterosexual contact   2010 Male          4032
##  7 Heterosexual contact   2011 Female        7411
##  8 Heterosexual contact   2011 Male          3760
##  9 Heterosexual contact   2012 Female        6939
## 10 Heterosexual contact   2012 Male          3485
## #  with 70 more rows
…
